…
The dataset
-----------

The dataset contains the information on breweries across the United States scraped from [beer advocate](https://www.beeradvocate.com/). Information on the breweries includes the brewery name, brewery rating, the number of reviews, the average rating of their beers, the number of beers they serve, and location information.

``` r
load("all_breweries.RData")
all_breweries
#> # A tibble: 5,686 × 14
#>                  brewery_name brewery_rating num_reviews beer_avg
#>                         <chr>          <dbl>       <dbl>    <dbl>
#> 1                 603 Brewery             NA          NA     3.75
#> 2      7th Settlement Brewery           4.23          24     3.61
#> 3  Agner & Wolf Brewery Corp.             NA          NA     3.61
#> 4    Ashuelot Brewing Company             NA          NA       NA
#> 5            Bad Lab Beer Co.             NA          NA       NA
#> 6     Beara Irish Brewing Co.           4.12           5     3.60
#> 7        Belgian Mare Brewery             NA          NA     3.39
#> 8           Big Water Brewery             NA          NA     3.17
#> 9  Blackstone Brewing Company             NA          NA       NA
#> 10         Border Brew Supply           3.85          10     3.39
#> # ... with 5,676 more rows, and 10 more variables: num_beers <dbl>,
#> #   address <chr>, type <chr>, city <chr>, state <chr>, lon <dbl>,
#> #   lat <dbl>, full_city <chr>, city_lon <dbl>, city_lat <dbl>
```
…
